AO_Final_Project - Adaeze Obinelo’s PM566 Final
…
The results indicate a very close coincidence between the BTS inflation adjusted fare and our calculated conversion variable, indicating that the dataset is valid with regards to fare cost.

Analysis: Given that the research question centers around LAX and BOS airports, the overall dataset was queried for trends in relation to these two airports. Due to the great geographic distance between these airports, the overall dataset was stratified by location to better understand region-specific baseline trends. Scatterplots were used to visualize trends between continuous variables. Bar plots were used to visualize continuous variables by categorical variables.

Results

# A tibble: 50 × 5
   `State Name` Avg_1993 Avg_2003 Avg_2013 Avg_2023
   <chr>           <dbl>    <dbl>    <dbl>    <dbl>
 1 AK               375.     493.     596.     641.
 2 AL               417.     402.     534.     568.
 3 AR               333.     400.     441.     519.
 4 AZ               386.     353.     468.     527.
 5 CA               353.     343.     402.     403.
 6 CO               339.     446.     526.     551.
 7 CT               415.     415.     414.     300.
 8 DC               415.     398.     424.     457.
 9 FL               359.     315.     361.     388.
10 GA               477.     409.     475.     557.
# ℹ 40 more rows
…
